<?xml version="1.0" encoding="UTF-8" standalone="no"?>
<svg
   viewBox="0 0 33.867 33.867"
   height="128.001"
   width="128.001"
   version="1.1"
   id="svg10"
   sodipodi:docname="carreau_double_ligne.svg"
   inkscape:version="1.2.2 (b0a8486541, 2022-12-01)"
   xmlns:inkscape="http://www.inkscape.org/namespaces/inkscape"
   xmlns:sodipodi="http://sodipodi.sourceforge.net/DTD/sodipodi-0.dtd"
   xmlns="http://www.w3.org/2000/svg"
   xmlns:svg="http://www.w3.org/2000/svg">
  <defs
     id="defs14" />
  <sodipodi:namedview
     id="namedview12"
     pagecolor="#ffffff"
     bordercolor="#000000"
     borderopacity="0.25"
     inkscape:showpageshadow="2"
     inkscape:pageopacity="0.0"
     inkscape:pagecheckerboard="0"
     inkscape:deskcolor="#d1d1d1"
     showgrid="false"
     inkscape:zoom="1.8437355"
     inkscape:cx="64.000504"
     inkscape:cy="64.271692"
     inkscape:window-width="1440"
     inkscape:window-height="831"
     inkscape:window-x="0"
     inkscape:window-y="0"
     inkscape:window-maximized="1"
     inkscape:current-layer="svg10" />
  <path
     d="M 33.867,24.93 H 0"
     fill="#0000ff"
     stroke="#004af2"
     stroke-width="0.269"
     id="path2"
     sodipodi:nodetypes="cc" />
  <g
     fill="purple"
     stroke="#b015ff"
     stroke-width=".717"
     id="g8">
    <path
       d="M33.867 33.509H0"
       id="path4" />
    <path
       d="M33.508 33.867V0"
       id="path6" />
  </g>
</svg>
