<?xml version="1.0" encoding="UTF-8" standalone="no"?>
<svg
   width="128"
   height="63.809"
   viewBox="0 0 3.84 1.914"
   version="1.1"
   id="svg20"
   sodipodi:docname="fleche_transp..svg"
   inkscape:version="1.2.2 (b0a8486541, 2022-12-01)"
   xmlns:inkscape="http://www.inkscape.org/namespaces/inkscape"
   xmlns:sodipodi="http://sodipodi.sourceforge.net/DTD/sodipodi-0.dtd"
   xmlns="http://www.w3.org/2000/svg"
   xmlns:svg="http://www.w3.org/2000/svg">
  <sodipodi:namedview
     id="namedview22"
     pagecolor="#ffffff"
     bordercolor="#000000"
     borderopacity="0.25"
     inkscape:showpageshadow="2"
     inkscape:pageopacity="0.0"
     inkscape:pagecheckerboard="0"
     inkscape:deskcolor="#d1d1d1"
     showgrid="false"
     inkscape:zoom="3.6985379"
     inkscape:cx="64.079375"
     inkscape:cy="32.039688"
     inkscape:window-width="1440"
     inkscape:window-height="831"
     inkscape:window-x="0"
     inkscape:window-y="0"
     inkscape:window-maximized="1"
     inkscape:current-layer="svg20" />
  <path
     d="M 1.9358143,0.31097251 3.2639768,1.639135 H 0.60765186 Z"
     fill="url(#B)"
     id="path4"
     style="fill:#000000;stroke-width:0.31881" />
  <defs
     id="defs18">
    <linearGradient
       id="A"
       x1="0"
       y1="2.998"
       x2="12.045"
       y2="2.998"
       gradientUnits="userSpaceOnUse"
       gradientTransform="matrix(0.31881,0,0,0.31881,0,0.001408)">
      <stop
         offset="0"
         stop-color="#bababa"
         id="stop8" />
      <stop
         offset="1"
         stop-color="#bababa"
         stop-opacity="0"
         id="stop10" />
    </linearGradient>
    <linearGradient
       id="B"
       x1="4.194"
       y1="2.978"
       x2="10.238"
       y2="3.054"
       gradientUnits="userSpaceOnUse"
       gradientTransform="matrix(0.31881,0,0,0.31881,0,0.001408)">
      <stop
         offset="0"
         id="stop13" />
      <stop
         offset="1"
         stop-opacity="0"
         id="stop15" />
    </linearGradient>
  </defs>
</svg>
